…
    ## Rows: 822 Columns: 9
    ## ── Column specification ────────────────────────────────────────────────────────
    ## Delimiter: ","
    ## dbl  (8): prez_gop, gov_gop, sen_gop, rep_gop, prez_dem, gov_dem, sen_dem, r...
    ## date (1): mon
    ## 
    ## ℹ Use `spec()` to retrieve the full column specification for this data.
    ## ℹ Specify the column types or set `show_col_types = FALSE` to quiet this message.

``` r
pols_month
```

    ## # A tibble: 822 × 9
    ##    year  month     gov_gop sen_gop rep_gop gov_dem sen_dem rep_dem president 
    ##    <chr> <chr>       <dbl>   <dbl>   <dbl>   <dbl>   <dbl>   <dbl> <chr>     
    ##  1 1947  January        23      51     253      23      45     198 democratic
    ##  2 1947  February       23      51     253      23      45     198 democratic
    ##  3 1947  March          23      51     253      23      45     198 democratic
    ##  4 1947  April          23      51     253      23      45     198 democratic
    ##  5 1947  May            23      51     253      23      45     198 democratic
    ##  6 1947  June           23      51     253      23      45     198 democratic
    ##  7 1947  July           23      51     253      23      45     198 democratic
    ##  8 1947  August         23      51     253      23      45     198 democratic
    ##  9 1947  September      23      51     253      23      45     198 democratic
    ## 10 1947  October        23      51     253      23      45     198 democratic
    ## # ℹ 812 more rows
…
    ## Rows: 787 Columns: 2
    ## ── Column specification ────────────────────────────────────────────────────────
    ## Delimiter: ","
    ## chr (1): date
    ## dbl (1): close
    ## 
    ## ℹ Use `spec()` to retrieve the full column specification for this data.
    ## ℹ Specify the column types or set `show_col_types = FALSE` to quiet this message.

``` r
snp
```

    ## # A tibble: 787 × 3
    ##    year  month    close
    ##    <chr> <chr>    <dbl>
    ##  1 2015  July     2080.
    ##  2 2015  June     2063.
    ##  3 2015  May      2107.
    ##  4 2015  April    2086.
    ##  5 2015  March    2068.
    ##  6 2015  February 2104.
    ##  7 2015  January  1995.
    ##  8 2014  December 2059.
    ##  9 2014  November 2068.
    ## 10 2014  October  2018.
    ## # ℹ 777 more rows
…
    ## Rows: 68 Columns: 13
    ## ── Column specification ────────────────────────────────────────────────────────
    ## Delimiter: ","
    ## dbl (13): Year, Jan, Feb, Mar, Apr, May, Jun, Jul, Aug, Sep, Oct, Nov, Dec
    ## 
    ## ℹ Use `spec()` to retrieve the full column specification for this data.
    ## ℹ Specify the column types or set `show_col_types = FALSE` to quiet this message.

``` r
unemployment
```

    ## # A tibble: 816 × 3
    ##    year  month     unemployment
    ##    <chr> <chr>            <dbl>
    ##  1 1948  January            3.4
    ##  2 1948  February           3.8
    ##  3 1948  March              4  
    ##  4 1948  April              3.9
    ##  5 1948  May                3.5
    ##  6 1948  June               3.6
    ##  7 1948  July               3.6
    ##  8 1948  August             3.9
    ##  9 1948  September          3.8
    ## 10 1948  October            3.7
    ## # ℹ 806 more rows

### Merge datasets

Join the datasets by merging `snp` into `pols_month`, and merging
`unemployment` into the result.

``` r
df=pols_month|>
  left_join(snp,by=c("year", "month"))|>
  left_join(unemployment, by=c("year", "month"))

df
```

    ## # A tibble: 822 × 11
    ##    year  month   gov_gop sen_gop rep_gop gov_dem sen_dem rep_dem president close
    ##    <chr> <chr>     <dbl>   <dbl>   <dbl>   <dbl>   <dbl>   <dbl> <chr>     <dbl>
    ##  1 1947  January      23      51     253      23      45     198 democrat…    NA
    ##  2 1947  Februa…      23      51     253      23      45     198 democrat…    NA
    ##  3 1947  March        23      51     253      23      45     198 democrat…    NA
    ##  4 1947  April        23      51     253      23      45     198 democrat…    NA
    ##  5 1947  May          23      51     253      23      45     198 democrat…    NA
    ##  6 1947  June         23      51     253      23      45     198 democrat…    NA
    ##  7 1947  July         23      51     253      23      45     198 democrat…    NA
    ##  8 1947  August       23      51     253      23      45     198 democrat…    NA
    ##  9 1947  Septem…      23      51     253      23      45     198 democrat…    NA
    ## 10 1947  October      23      51     253      23      45     198 democrat…    NA
    ## # ℹ 812 more rows
    ## # ℹ 1 more variable: unemployment <dbl>
…
``` r
mr_trash_wheel = read_excel(
  "202309 Trash Wheel Collection Data.xlsx", 
  sheet="Mr. Trash Wheel", range = cell_cols("A:N"))|>
  janitor::clean_names()|>
  filter(row_number() <= n()-1)|>
  mutate(homes_powered=weight_tons*500/30)

mr_trash_wheel
```

    ## # A tibble: 584 × 14
    ##    dumpster month year  date                weight_tons volume_cubic_yards
    ##       <dbl> <chr> <chr> <dttm>                    <dbl>              <dbl>
    ##  1        1 May   2014  2014-05-16 00:00:00        4.31                 18
    ##  2        2 May   2014  2014-05-16 00:00:00        2.74                 13
    ##  3        3 May   2014  2014-05-16 00:00:00        3.45                 15
    ##  4        4 May   2014  2014-05-17 00:00:00        3.1                  15
    ##  5        5 May   2014  2014-05-17 00:00:00        4.06                 18
    ##  6        6 May   2014  2014-05-20 00:00:00        2.71                 13
    ##  7        7 May   2014  2014-05-21 00:00:00        1.91                  8
    ##  8        8 May   2014  2014-05-28 00:00:00        3.7                  16
    ##  9        9 June  2014  2014-06-05 00:00:00        2.52                 14
    ## 10       10 June  2014  2014-06-11 00:00:00        3.76                 18
    ## # ℹ 574 more rows
    ## # ℹ 8 more variables: plastic_bottles <dbl>, polystyrene <dbl>,
    ## #   cigarette_butts <dbl>, glass_bottles <dbl>, plastic_bags <dbl>,
    ## #   wrappers <dbl>, sports_balls <dbl>, homes_powered <dbl>
…
Use a similar process to import, clean, and organize the data for
`professor_trash_wheel`

``` r
professor_trash_wheel = read_excel(
  "202309 Trash Wheel Collection Data.xlsx", 
  sheet="Professor Trash Wheel", range = cell_cols("A:M"))|>
  janitor::clean_names()|>
  filter(row_number() <= n()-1)|>
  mutate(homes_powered=weight_tons*500/30)

professor_trash_wheel
```

    ## # A tibble: 106 × 13
    ##    dumpster month     year date                weight_tons volume_cubic_yards
    ##       <dbl> <chr>    <dbl> <dttm>                    <dbl>              <dbl>
    ##  1        1 January   2017 2017-01-02 00:00:00        1.79                 15
    ##  2        2 January   2017 2017-01-30 00:00:00        1.58                 15
    ##  3        3 February  2017 2017-02-26 00:00:00        2.32                 18
    ##  4        4 February  2017 2017-02-26 00:00:00        3.72                 15
    ##  5        5 February  2017 2017-02-28 00:00:00        1.45                 15
    ##  6        6 March     2017 2017-03-30 00:00:00        1.71                 15
    ##  7        7 April     2017 2017-04-01 00:00:00        1.82                 15
    ##  8        8 April     2017 2017-04-20 00:00:00        2.37                 15
    ##  9        9 May       2017 2017-05-10 00:00:00        2.64                 15
    ## 10       10 May       2017 2017-05-26 00:00:00        2.78                 15
    ## # ℹ 96 more rows
    ## # ℹ 7 more variables: plastic_bottles <dbl>, polystyrene <dbl>,
    ## #   cigarette_butts <dbl>, glass_bottles <dbl>, plastic_bags <dbl>,
    ## #   wrappers <dbl>, homes_powered <dbl>
…
Use a similar process to import, clean, and organize the data for
`gwynnda`

``` r
gwynnda = read_excel(
  "202309 Trash Wheel Collection Data.xlsx", 
  sheet="Gwynnda Trash Wheel", range = cell_cols("A:L"))|>
  janitor::clean_names()|>
  filter(row_number() <= n()-2)|>
  mutate(homes_powered=weight_tons*500/30)

gwynnda
```

    ## # A tibble: 155 × 12
    ##    dumpster month   year date                weight_tons volume_cubic_yards
    ##       <dbl> <chr>  <dbl> <dttm>                    <dbl>              <dbl>
    ##  1        1 July    2021 2021-07-03 00:00:00        0.93                 15
    ##  2        2 July    2021 2021-07-07 00:00:00        2.26                 15
    ##  3        3 July    2021 2021-07-07 00:00:00        1.62                 15
    ##  4        4 July    2021 2021-07-16 00:00:00        1.76                 15
    ##  5        5 July    2021 2021-07-30 00:00:00        1.53                 15
    ##  6        6 August  2021 2021-08-11 00:00:00        2.06                 15
    ##  7        7 August  2021 2021-08-14 00:00:00        1.9                  15
    ##  8        8 August  2021 2021-08-16 00:00:00        2.16                 15
    ##  9        9 August  2021 2021-08-16 00:00:00        2.6                  15
    ## 10       10 August  2021 2021-08-17 00:00:00        3.21                 15
    ## # ℹ 145 more rows
    ## # ℹ 6 more variables: plastic_bottles <dbl>, polystyrene <dbl>,
    ## #   cigarette_butts <dbl>, plastic_bags <dbl>, wrappers <dbl>,
    ## #   homes_powered <dbl>
…
gwynnda=gwynnda|>
  mutate(trash_wheel="Gwynnda Trash Wheel",
         year=as.character(year))

mr_trash_wheel_tidy = 
  bind_rows(mr_trash_wheel, professor_trash_wheel, gwynnda) |>
  janitor::clean_names() |>
  select(trash_wheel, everything()) 

mr_trash_wheel_tidy
```

    ## # A tibble: 845 × 15
    ##    trash_wheel     dumpster month year  date                weight_tons
    ##    <chr>              <dbl> <chr> <chr> <dttm>                    <dbl>
    ##  1 Mr. Trash Wheel        1 May   2014  2014-05-16 00:00:00        4.31
    ##  2 Mr. Trash Wheel        2 May   2014  2014-05-16 00:00:00        2.74
    ##  3 Mr. Trash Wheel        3 May   2014  2014-05-16 00:00:00        3.45
    ##  4 Mr. Trash Wheel        4 May   2014  2014-05-17 00:00:00        3.1 
    ##  5 Mr. Trash Wheel        5 May   2014  2014-05-17 00:00:00        4.06
    ##  6 Mr. Trash Wheel        6 May   2014  2014-05-20 00:00:00        2.71
    ##  7 Mr. Trash Wheel        7 May   2014  2014-05-21 00:00:00        1.91
    ##  8 Mr. Trash Wheel        8 May   2014  2014-05-28 00:00:00        3.7 
    ##  9 Mr. Trash Wheel        9 June  2014  2014-06-05 00:00:00        2.52
    ## 10 Mr. Trash Wheel       10 June  2014  2014-06-11 00:00:00        3.76
    ## # ℹ 835 more rows
    ## # ℹ 9 more variables: volume_cubic_yards <dbl>, plastic_bottles <dbl>,
    ## #   polystyrene <dbl>, cigarette_butts <dbl>, glass_bottles <dbl>,
    ## #   plastic_bags <dbl>, wrappers <dbl>, sports_balls <dbl>, homes_powered <dbl>
…
    ## Rows: 483 Columns: 6
    ## ── Column specification ────────────────────────────────────────────────────────
    ## Delimiter: ","
    ## chr (1): Age at onset
    ## dbl (5): ID, Current Age, Sex, Education, apoe4
    ## 
    ## ℹ Use `spec()` to retrieve the full column specification for this data.
    ## ℹ Specify the column types or set `show_col_types = FALSE` to quiet this message.

``` r
mci_baseline
```

    ## # A tibble: 97 × 6
    ##       id current_age sex    education apoe4             age_at_onset
    ##    <dbl>       <dbl> <fct>      <dbl> <fct>             <chr>       
    ##  1     3        62.5 male          16 apoe4 carrier     66.8        
    ##  2     5        66   male          16 apoe4 non-carrier 68.7        
    ##  3     7        66.5 male          18 apoe4 non-carrier 74          
    ##  4    13        63.1 male          12 apoe4 carrier     69          
    ##  5    14        58.4 female        20 apoe4 non-carrier 66.2        
    ##  6    18        67.8 male          16 apoe4 non-carrier 69.8        
    ##  7    22        67.3 female        20 apoe4 carrier     74.6        
    ##  8    26        64.8 female        20 apoe4 carrier     71.1        
    ##  9    30        66.3 female        12 apoe4 non-carrier 73.1        
    ## 10    39        68.3 female        16 apoe4 carrier     70.2        
    ## # ℹ 87 more rows
…
    ## Rows: 487 Columns: 6
    ## ── Column specification ────────────────────────────────────────────────────────
    ## Delimiter: ","
    ## chr (5): Baseline, Time 2, Time 4, Time 6, Time 8
    ## dbl (1): Study ID
    ## 
    ## ℹ Use `spec()` to retrieve the full column specification for this data.
    ## ℹ Specify the column types or set `show_col_types = FALSE` to quiet this message.

``` r
mci_amyloid
```

    ## # A tibble: 1,948 × 4
    ##       id baseline     time amyloid    
    ##    <dbl> <chr>       <dbl> <chr>      
    ##  1     1 0.1105487       2 <NA>       
    ##  2     1 0.1105487       4 0.109325197
    ##  3     1 0.1105487       6 0.104756131
    ##  4     1 0.1105487       8 0.107257697
    ##  5     2 0.107481183     2 0.109157373
    ##  6     2 0.107481183     4 0.109457839
    ##  7     2 0.107481183     6 0.105729713
    ##  8     2 0.107481183     8 0.10661845 
    ##  9     3 0.106087034     2 0.108744509
    ## 10     3 0.106087034     4 0.106065035
    ## # ℹ 1,938 more rows
…
Therefore, there are participants appear in only the baseline and
participants appear in only amyloid datasets.

### Combine the demographic and biomarker datasets so that only participants who appear in both datasets are retained

``` r
df_2 = inner_join(mci_baseline, mci_amyloid, by = "id")

df_2
```

    ## # A tibble: 376 × 9
    ##       id current_age sex   education apoe4   age_at_onset baseline  time amyloid
    ##    <dbl>       <dbl> <fct>     <dbl> <fct>   <chr>        <chr>    <dbl> <chr>  
    ##  1     3        62.5 male         16 apoe4 … 66.8         0.10608…     2 0.1087…
    ##  2     3        62.5 male         16 apoe4 … 66.8         0.10608…     4 0.1060…
    ##  3     3        62.5 male         16 apoe4 … 66.8         0.10608…     6 <NA>   
    ##  4     3        62.5 male         16 apoe4 … 66.8         0.10608…     8 0.1061…
    ##  5     5        66   male         16 apoe4 … 68.7         0.10795…     2 0.1122…
    ##  6     5        66   male         16 apoe4 … 68.7         0.10795…     4 0.1151…
    ##  7     5        66   male         16 apoe4 … 68.7         0.10795…     6 0.1066…
    ##  8     5        66   male         16 apoe4 … 68.7         0.10795…     8 0.1060…
    ##  9     7        66.5 male         18 apoe4 … 74           0.11224…     2 <NA>   
    ## 10     7        66.5 male         18 apoe4 … 74           0.11224…     4 0.1042…
    ## # ℹ 366 more rows
…
